{
    "results": [
        {
            "popularity": 3.5,
            "vote_count": 890,
            "id": 1,
            "backdrop_path": "/hpgda6P9GutvdkDX5MUJ92QG9aj.jpg",
            "genre" : "2019 ‧ Sci-fi/Thriller ‧ 2h 2m",
            "title": "Alita: Battle Angel",
            "vote_average": 7.5,
            "overview": "Set several centuries in the future, the abandoned Alita is found in the scrapyard of Iron City by Ido, a compassionate cyber-doctor who takes the unconscious cyborg Alita to his clinic. When Alita awakens, she has no memory of who she is, nor does she have any recognition of the world she finds herself in. As Alita learns to navigate her new life and the treacherous streets of Iron City, Ido tries to shield her from her mysterious past.",
            "release_date": "February 5, 2019"
        },
        {
            "popularity": 4.1,
            "vote_count": 300,
            "id": 2,
            "backdrop_path": "/5Kg76ldv7VxeX9YlcQXiowHgdX6.jpg",
            "genre" : "2019 ‧ Sci-fi/Thriller ‧ 2h 2m",
            "title": "Aquaman",
            "vote_average": 8.8,
            "overview": "Once home to the most advanced civilization on Earth, the city of Atlantis is now an underwater kingdom ruled by the power-hungry King Orm. With a vast army at his disposal, Orm plans to conquer the remaining oceanic people -- and then the surface world. Standing in his way is Aquaman, Orm's half-human, half-Atlantean brother and true heir to the throne. With help from royal counselor Vulko, Aquaman must retrieve the legendary Trident of Atlan and embrace his destiny as protector of the deep.",
            "release_date": "December 21, 2018"
        },
        {
            "popularity": 4.1,
            "vote_count": 300,
            "id": 3,
            "backdrop_path": "/wrFpXMNBRj2PBiN4Z5kix51XaIZ.jpg",
            "genre" : "2019 ‧ Sci-fi/Thriller ‧ 2h 2m",
            "title": "A Star Is Born",
            "vote_average": 8.8,
            "overview": "Seasoned musician Jackson Maine discovers -- and falls in love with -- struggling artist Ally. She has just about given up on her dream to make it big as a singer until Jackson coaxes her into the spotlight. But even as Ally's career takes off, the personal side of their relationship is breaking down, as Jackson fights an ongoing battle with his own internal demons.",
            "release_date": "December 21, 2018"
        },
        {
            "popularity": 4.1,
            "vote_count": 300,
            "id": 4,
            "backdrop_path": "/lHu1wtNaczFPGFDTrjCSzeLPTKN.jpg",
            "genre" : "2019 ‧ Sci-fi/Thriller ‧ 2h 2m",
            "title": "Bohemian Rhapsody",
            "vote_average": 8.8,
            "overview": "Bohemian Rhapsody is a foot-stomping celebration of Queen, their music and their extraordinary lead singer Freddie Mercury. Freddie defied stereotypes and shattered convention to become one of the most beloved entertainers on the planet. The film traces the meteoric rise of the band through their iconic songs and revolutionary sound. They reach unparalleled success, but in an unexpected turn Freddie, surrounded by darker influences, shuns Queen in pursuit of his solo career. Having suffered greatly without the collaboration of Queen, Freddie manages to reunite with his bandmates just in time for Live Aid. While bravely facing a recent AIDS diagnosis, Freddie leads the band in one of the greatest performances in the history of rock music. Queen cements a legacy that continues to inspire outsiders, dreamers and music lovers to this day",
            "release_date": "December 21, 2018"
        },
        {
            "popularity": 4.1,
            "vote_count": 300,
            "id": 5,
            "backdrop_path": "/xvx4Yhf0DVH8G4LzNISpMfFBDy2.jpg",
            "genre" : "2019 ‧ Sci-fi/Thriller ‧ 2h 2m",
            "title": "How to Train Your Dragon: The Hidden World",
            "vote_average": 8.8,
            "overview": "Once home to the most advanced civilization on Earth, the city of Atlantis is now an underwater kingdom ruled by the power-hungry King Orm. With a vast army at his disposal, Orm plans to conquer the remaining oceanic people -- and then the surface world. Standing in his way is Aquaman, Orm's half-human, half-Atlantean brother and true heir to the throne. With help from royal counselor Vulko, Aquaman must retrieve the legendary Trident of Atlan and embrace his destiny as protector of the deep.",
            "release_date": "December 21, 2018"
        },
        {
            "popularity": 3.5,
            "vote_count": 890,
            "id": 6,
            "backdrop_path": "/7WsyChQLEftFiDOVTGkv3hFpyyt.jpg",
            "genre" : "2019 ‧ Sci-fi/Thriller ‧ 2h 2m",
            "title": "Avengers : Infinity War",
            "vote_average": 7.5,
            "overview": "Set several centuries in the future, the abandoned Alita is found in the scrapyard of Iron City by Ido, a compassionate cyber-doctor who takes the unconscious cyborg Alita to his clinic. When Alita awakens, she has no memory of who she is, nor does she have any recognition of the world she finds herself in. As Alita learns to navigate her new life and the treacherous streets of Iron City, Ido tries to shield her from her mysterious past.",
            "release_date": "February 5, 2019"
        },
        {
            "popularity": 4.1,
            "vote_count": 300,
            "id": 7,
            "backdrop_path": "/emJc3atQsh2vnTgogQiyDIHKKPB.jpg",
            "genre" : "2019 ‧ Sci-fi/Thriller ‧ 2h 2m",
            "title": "Wreck-It Ralph",
            "vote_average": 8.8,
            "overview": "Once home to the most advanced civilization on Earth, the city of Atlantis is now an underwater kingdom ruled by the power-hungry King Orm. With a vast army at his disposal, Orm plans to conquer the remaining oceanic people -- and then the surface world. Standing in his way is Aquaman, Orm's half-human, half-Atlantean brother and true heir to the throne. With help from royal counselor Vulko, Aquaman must retrieve the legendary Trident of Atlan and embrace his destiny as protector of the deep.",
            "release_date": "December 21, 2018"
        },
        {
            "popularity": 4.1,
            "vote_count": 300,
            "id": 8,
            "backdrop_path": "/hKzhV274pkZBSpXfCjUyzbyYKLl.jpg",
            "genre" : "2019 ‧ Sci-fi/Thriller ‧ 2h 2m",
            "title": "Creed",
            "vote_average": 8.8,
            "overview": "Once home to the most advanced civilization on Earth, the city of Atlantis is now an underwater kingdom ruled by the power-hungry King Orm. With a vast army at his disposal, Orm plans to conquer the remaining oceanic people -- and then the surface world. Standing in his way is Aquaman, Orm's half-human, half-Atlantean brother and true heir to the throne. With help from royal counselor Vulko, Aquaman must retrieve the legendary Trident of Atlan and embrace his destiny as protector of the deep.",
            "release_date": "December 21, 2018"
        },
        {
            "popularity": 4.1,
            "vote_count": 300,
            "id": 9,
            "backdrop_path": "/fMMrl8fD9gRCFJvsx0SuFwkEOop.jpg",
            "genre" : "2019 ‧ Sci-fi/Thriller ‧ 2h 2m",
            "title": "Fantastic Beasts: The Crimes of Grindelwald",
            "vote_average": 8.8,
            "overview": "Once home to the most advanced civilization on Earth, the city of Atlantis is now an underwater kingdom ruled by the power-hungry King Orm. With a vast army at his disposal, Orm plans to conquer the remaining oceanic people -- and then the surface world. Standing in his way is Aquaman, Orm's half-human, half-Atlantean brother and true heir to the throne. With help from royal counselor Vulko, Aquaman must retrieve the legendary Trident of Atlan and embrace his destiny as protector of the deep.",
            "release_date": "December 21, 2018"
        },
        {
            "popularity": 4.1,
            "vote_count": 300,
            "id": 10,
            "backdrop_path": "/iiZZdoQBEYBv6id8su7ImL0oCbD.jpg",
            "genre" : "2019 ‧ Sci-fi/Thriller ‧ 2h 2m",
            "title": "Spider-Man: Into the Spider-Verse",
            "vote_average": 8.8,
            "overview": "Once home to the most advanced civilization on Earth, the city of Atlantis is now an underwater kingdom ruled by the power-hungry King Orm. With a vast army at his disposal, Orm plans to conquer the remaining oceanic people -- and then the surface world. Standing in his way is Aquaman, Orm's half-human, half-Atlantean brother and true heir to the throne. With help from royal counselor Vulko, Aquaman must retrieve the legendary Trident of Atlan and embrace his destiny as protector of the deep.",
            "release_date": "December 21, 2018"
        }
    ],
    "page": 1,
    "total_results": 1107,
    "dates": {
        "maximum": "2019-08-31",
        "minimum": "2019-07-14"
    },
    "total_pages": 56
}