{
    "results": [
        {
            "popularity": 3.5,
            "vote_count": 890,
            "id": 1,
            "backdrop_path": "/bAQ8O5Uw6FedtlCbJTutenzPVKd.jpg",
            "genre" : "2019 ‧ Sci-fi/Thriller ‧ 2h 2m",
            "title": "Naruto The Last",
            "vote_average": 7.5,
            "overview": "More than two years have passed since the most recent adventures in the Hidden Leaf Village, ample time for ninja wannabe Naruto Uzumaki to have developed skills worthy of recognition and respect. The hyperactive youngster has trained extensively with Jiraiya-sama and returned to Konoha to reunite with friends and, perhaps, partake in more pranks than schoolwork. But Naruto is more determined than ever to become the greatest ninja, and his hard-earned improvements are put to the ultimate test against newer, stronger enemies. \"Naruto: Shippuden\" is adapted from Part II of the \"Naruto\" comic book series by Masashi Kishimoto.",
            "release_date": "February 5, 2019"
        },
        {
            "popularity": 4.1,
            "vote_count": 300,
            "id": 2,
            "backdrop_path": "/avqUG5RYB93rwSUNL5r16Vtbc9g.jpg",
            "genre" : "2019 ‧ Sci-fi/Thriller ‧ 2h 2m",
            "title": "Broken Arrow",
            "vote_average": 8.8,
            "overview": "When rogue stealth-fighter pilot Vic Deakins deliberately drops off the radar while on maneuvers, the Air Force ends up with two stolen nuclear warheads -- and Deakins's co-pilot, Riley Hale, is the military's only hope for getting them back. Traversing the deserted canyons of Utah, Hale teams with park ranger Terry Carmichael to put Deakins back in his box.",
            "release_date": "December 21, 2018"
        },
        {
            "popularity": 4.1,
            "vote_count": 300,
            "id": 3,
            "backdrop_path": "/gNQA76kl251IuJVKMHfrRE12p7j.jpg",
            "genre" : "2019 ‧ Sci-fi/Thriller ‧ 2h 2m",
            "title": "Tooth Fairy",
            "vote_average": 8.8,
            "overview": "When minor-league hockey player Derek Thompson -- who has a penchant for knocking out his opponents' teeth every time he plays -- disillusions a fan, he is sentenced to a stint for one week as a bona fide, tutu-clad, real-life tooth fairy. Soon, Derek is inspired to rekindle his youthful dreams.",
            "release_date": "December 21, 2018"
        },
        {
            "popularity": 4.1,
            "vote_count": 300,
            "id": 4,
            "backdrop_path": "/9c5vKUX7MB1yixVp0ZFAUDRTaeE.jpg",
            "genre" : "2019 ‧ Sci-fi/Thriller ‧ 2h 2m",
            "title": "Flash Gordon",
            "vote_average": 8.8,
            "overview": "A football player and his friends travel to the planet Mongo and find themselves fighting the tyrant, Ming the Merciless, to save Earth.",
            "release_date": "December 21, 2018"
        },
        {
            "popularity": 4.1,
            "vote_count": 300,
            "id": 5,
            "backdrop_path": "/xyFaNh1IGdHEJbuLdba6a7GxLzP.jpg",
            "genre" : "2019 ‧ Sci-fi/Thriller ‧ 2h 2m",
            "title": "Son of God",
            "vote_average": 8.8,
            "overview": "The life story of Jesus is told from his humble birth through his teachings, crucifixion and ultimate resurrection.",
            "release_date": "December 21, 2018"
        },
        {
            "popularity": 3.5,
            "vote_count": 890,
            "id": 6,
            "backdrop_path": "/2Jr4Rl4Hjiahgh09bjeH8tFhgKp.jpg",
            "genre" : "2019 ‧ Sci-fi/Thriller ‧ 2h 2m",
            "title": "Hanna",
            "vote_average": 7.5,
            "overview": "A 16-year-old girl raised by her father to be the perfect assassin is dispatched on a mission across Europe. Tracked by a ruthless operatives, she faces startling revelations about her existence and questions about her humanity.",
            "release_date": "February 5, 2019"
        },
        {
            "popularity": 4.1,
            "vote_count": 300,
            "id": 7,
            "backdrop_path": "/oePcuBR3JsUt00gvrdlfUABFe2S.jpg",
            "genre" : "2019 ‧ Sci-fi/Thriller ‧ 2h 2m",
            "title": "Iron Fist Pillage",
            "vote_average": 8.8,
            "overview": "The Wu-Tang Clan's Cappadonna redubs a 1970s martial arts thriller to hilarious effect, casting himself in the lead role as a pot-smoking rapper who wakes up in an Asian kung fu dreamscape. There, he's framed for the murder of a rival gang leader and is quickly banished. Liberally changing characters into drunks and prostitutes, Cappadonna crafts a unique comedy experience that also features the voices of Hideo Seaver and Shawn Wigs.",
            "release_date": "December 21, 2018"
        },
        {
            "popularity": 4.1,
            "vote_count": 300,
            "id": 8,
            "backdrop_path": "/cVhe15rJLRjolunSWLBN6xQLyGU.jpg",
            "genre" : "2019 ‧ Sci-fi/Thriller ‧ 2h 2m",
            "title": "Fighting with My Family",
            "vote_average": 8.8,
            "overview": "Born into a tight-knit wrestling family, Paige and her brother Zak are ecstatic when they get the once-in-a-lifetime opportunity to try out for the WWE. But when only Paige earns a spot in the competitive training program, she must leave her loved ones behind and face this new cutthroat world alone. Paige's journey pushes her to dig deep and ultimately prove to the world that what makes her different is the very thing that can make her a star.",
            "release_date": "December 21, 2018"
        },
        {
            "popularity": 4.1,
            "vote_count": 300,
            "id": 9,
            "backdrop_path": "/rOqNMGW3v8F1wnMER3RvuUD2msV.jpg",
            "genre" : "2019 ‧ Sci-fi/Thriller ‧ 2h 2m",
            "title": "Archie: To Riverdale and Back Again",
            "vote_average": 8.8,
            "overview": "The classic comic book characters created by John L. Goldwater are brought to tv in a slightly older version. Here the characters are adults returning to their high school reunion and remembering old times and romances from good old Riverdale High",
            "release_date": "December 21, 2018"
        },
        {
            "popularity": 4.1,
            "vote_count": 300,
            "id": 10,
            "backdrop_path": "/q9baOn8ZpRXmExirMCqBPaMxEiO.jpg",
            "genre" : "2019 ‧ Sci-fi/Thriller ‧ 2h 2m",
            "title": "School Super Girl Team",
            "vote_average": 8.8,
            "overview": "Three girls, who have psychic powers, found a justice supporting group called the “Gakuen Choujotai” (Academy Super Girl Team). Psychokinesist Yumi, telepathist O-Kei, and Mai, who has superhuman strength. However, they are still inexperienced in using these powers. Meanwhile, a suspicious organization, the “Psychic Power Research Society” secretly works on a method to control the students` minds. The time has come for the Academy Super Girl Team.",
            "release_date": "December 21, 2018"
        },
        {
            "popularity": 4.1,
            "vote_count": 300,
            "id": 11,
            "backdrop_path": "/eEiCGxRMhU1pAZj03GmnjtVGEiR.jpg",
            "genre" : "2019 ‧ Sci-fi/Thriller ‧ 2h 2m",
            "title": "Boxing Helena",
            "vote_average": 8.8,
            "overview": "Once home to the most advanced civilization on Earth, the city of Atlantis is now an underwater kingdom ruled by the power-hungry King Orm. With a vast army at his disposal, Orm plans to conquer the remaining oceanic people -- and then the surface world. Standing in his way is Aquaman, Orm's half-human, half-Atlantean brother and true heir to the throne. With help from royal counselor Vulko, Aquaman must retrieve the legendary Trident of Atlan and embrace his destiny as protector of the deep.",
            "release_date": "December 21, 2018"
        }
    ],
    "page": 1,
    "total_results": 1107,
    "dates": {
        "maximum": "2019-08-31",
        "minimum": "2019-07-14"
    },
    "total_pages": 56
}